(i__main__
LogFile
p0
(dp1
S'_installed_files'
p2
(dp3
S'../../../PhysicsAnalysis/MuonID/MuonPerformanceAnalysis/AthMuonSelector/x86_64-slc6-gcc49-opt/libAthMuonSelector.so'
p4
S'../../../../../InstallArea/x86_64-slc6-gcc49-opt/lib/libAthMuonSelector.so'
p5
sS'../../AthMuonSelector/genConf/AthMuonSelector'
p6
(dp7
S'../../../AthMuonSelector/genConf/AthMuonSelector/AthMuonSelectorConf.py'
p8
S'../../InstallArea/python/AthMuonSelector/AthMuonSelectorConf.py'
p9
ssS'../../PhysicsAnalysis/MuonID/MuonPerformanceAnalysis/AthMuonSelector/genConf/AthMuonSelector'
p10
(dp11
S'../../../PhysicsAnalysis/MuonID/MuonPerformanceAnalysis/AthMuonSelector/genConf/AthMuonSelector/AthMuonSelectorConf.py'
p12
S'../../../../../InstallArea/python/AthMuonSelector/AthMuonSelectorConf.py'
p13
ssS'../../../PhysicsAnalysis/MuonID/MuonPerformanceAnalysis/AthMuonSelector/x86_64-slc6-gcc49-opt/libAthMuonSelector.so.debug'
p14
S'../../../../../InstallArea/x86_64-slc6-gcc49-opt/lib/libAthMuonSelector.so.debug'
p15
sS'../../../AthMuonSelector/x86_64-slc6-gcc49-opt/libAthMuonSelector.so.debug'
p16
S'../../InstallArea/x86_64-slc6-gcc49-opt/lib/libAthMuonSelector.so.debug'
p17
sS'../../../../../../../../../../cvmfs/atlas.cern.ch/repo/sw/software/x86_64-slc6-gcc49-opt/20.7.5/GAUDI/v26r2p1-lcg81c/GaudiPolicy/cmt/fragments/__init__.py'
p18
S'../../InstallArea/python/AthMuonSelector/__init__.py'
p19
sS'../../../AthMuonSelector/x86_64-slc6-gcc49-opt/libAthMuonSelector.so'
p20
S'../../InstallArea/x86_64-slc6-gcc49-opt/lib/libAthMuonSelector.so'
p21
ssb.